%YAML 1.1
%TAG !u! tag:unity3d.com,2011:
--- !u!1 &7840120470575610054
GameObject:
  m_ObjectHideFlags: 0
  m_CorrespondingSourceObject: {fileID: 0}
  m_PrefabInstance: {fileID: 0}
  m_PrefabAsset: {fileID: 0}
  serializedVersion: 6
  m_Component:
  - component: {fileID: 7840120470575610055}
  - component: {fileID: 7840120470575610048}
  m_Layer: 0
  m_Name: HelperFiles
  m_TagString: Untagged
  m_Icon: {fileID: 0}
  m_NavMeshLayer: 0
  m_StaticEditorFlags: 0
  m_IsActive: 1
--- !u!4 &7840120470575610055
Transform:
  m_ObjectHideFlags: 0
  m_CorrespondingSourceObject: {fileID: 0}
  m_PrefabInstance: {fileID: 0}
  m_PrefabAsset: {fileID: 0}
  m_GameObject: {fileID: 7840120470575610054}
  m_LocalRotation: {x: 0, y: 0, z: 0, w: 1}
  m_LocalPosition: {x: 0, y: 0, z: 0}
  m_LocalScale: {x: 1, y: 1, z: 1}
  m_Children: []
  m_Father: {fileID: 0}
  m_RootOrder: 0
  m_LocalEulerAnglesHint: {x: 0, y: 0, z: 0}
--- !u!114 &7840120470575610048
MonoBehaviour:
  m_ObjectHideFlags: 0
  m_CorrespondingSourceObject: {fileID: 0}
  m_PrefabInstance: {fileID: 0}
  m_PrefabAsset: {fileID: 0}
  m_GameObject: {fileID: 7840120470575610054}
  m_Enabled: 1
  m_EditorHideFlags: 0
  m_Script: {fileID: 11500000, guid: d620034926aef3f42a6dc68f128b86aa, type: 3}
  m_Name: 
  m_EditorClassIdentifier: 
  unitIcons: []
  sigils:
  - {fileID: 2800000, guid: efc6f3cc832144f4faf3ead71a05c71e, type: 3}
  - {fileID: 2800000, guid: 991c5d4b3d94d1147a9f5117150db870, type: 3}
  - {fileID: 2800000, guid: 6640d0809f5c0f24cb8af81c77112b87, type: 3}
  - {fileID: 2800000, guid: 107c5c35f03ca99499e9b6240f538bed, type: 3}
  - {fileID: 2800000, guid: f38c60f5948575743a24642d4889b093, type: 3}
  - {fileID: 2800000, guid: 21cbd1144b51c4b4abbbafff07c0ee19, type: 3}
  - {fileID: 2800000, guid: 7afda9aa74b453747a5ed9eda744de59, type: 3}
  - {fileID: 2800000, guid: f49b76db33a76294da4d964b51a72cd5, type: 3}
  - {fileID: 2800000, guid: c3168829df4c5894ab7b3ddf60b3d68e, type: 3}
  - {fileID: 2800000, guid: 5ddf64d0ebc9ea847b29dd35e414f6fa, type: 3}
  - {fileID: 2800000, guid: 156bda562ad433944a154591fa4f3019, type: 3}
  skin: {fileID: 2100000, guid: f62a6bd690526a240a19911b7b99f02f, type: 2}
  tunic: {fileID: 2100000, guid: d5569a9835b71384995f3552f5518103, type: 2}
  armor: {fileID: 2100000, guid: ea1216b2375c0294e845862a6bb10ad5, type: 2}
