%YAML 1.1
%TAG !u! tag:unity3d.com,2011:
--- !u!1 &4384647164541255981
GameObject:
  m_ObjectHideFlags: 0
  m_CorrespondingSourceObject: {fileID: 0}
  m_PrefabInstance: {fileID: 0}
  m_PrefabAsset: {fileID: 0}
  serializedVersion: 6
  m_Component:
  - component: {fileID: 4384647164541255980}
  - component: {fileID: 4384647164541255983}
  m_Layer: 0
  m_Name: squad
  m_TagString: Untagged
  m_Icon: {fileID: 0}
  m_NavMeshLayer: 0
  m_StaticEditorFlags: 0
  m_IsActive: 1
--- !u!4 &4384647164541255980
Transform:
  m_ObjectHideFlags: 0
  m_CorrespondingSourceObject: {fileID: 0}
  m_PrefabInstance: {fileID: 0}
  m_PrefabAsset: {fileID: 0}
  m_GameObject: {fileID: 4384647164541255981}
  m_LocalRotation: {x: 0, y: 1, z: 0, w: 0}
  m_LocalPosition: {x: 0, y: 0, z: 0}
  m_LocalScale: {x: 1, y: 1, z: 1}
  m_Children: []
  m_Father: {fileID: 0}
  m_RootOrder: 0
  m_LocalEulerAnglesHint: {x: 0, y: 180, z: 0}
--- !u!114 &4384647164541255983
MonoBehaviour:
  m_ObjectHideFlags: 0
  m_CorrespondingSourceObject: {fileID: 0}
  m_PrefabInstance: {fileID: 0}
  m_PrefabAsset: {fileID: 0}
  m_GameObject: {fileID: 4384647164541255981}
  m_Enabled: 1
  m_EditorHideFlags: 0
  m_Script: {fileID: 11500000, guid: d13c85485c004e74683f89b60bc575c2, type: 3}
  m_Name: 
  m_EditorClassIdentifier: 
  unitPrefab: {fileID: 5574559792690785344, guid: 70b818b3245f0e644ad70fb8b77c39c2,
    type: 3}
  wayPointPrefab: {fileID: 3639082943869239057, guid: 20276fde3fc310540989744be17c570c,
    type: 3}
  customTag: PlayerUnits
  squadId: 0
  stance: 1
  teamId: 0
  alliances: 
  moveDelay: 0.1
  banner: {fileID: 0}
