{
    "names": [
        "Actaeon",
        "Acteon",
        "Adonis",
        "Arastos",
        "Adrastus",
        "Aegidios",
        "Aesop",
        "Aether",
        "Agamemnon",
        "Agapetos",
        "Agathon",
        "Aineias",
        "Aiolos",
        "Aischylos",
        "Aison",
        "Aisopos",
        "Akakios",
        "Alexandros",
        "Alexio",
        "Alexios",
        "Alexis",
        "Alexius",
        "Alkaios",
        "Alkimos",
        "Alphaios",
        "Ambrosios",
        "Amenophis",
        "Ammon",
        "Ampelios",
        "Amyntas",
        "Anakletos",
        "Ananias",
        "Anargyros",
        "Anastasios",
        "Anatolios",
        "Anaxagoras",
        "Andonis",
        "Andreas",
        "Androkles",
        "Andronikos",
        "Angelos",
        "Aniketos",
        "Annas",
        "Antigonos",
        "Antipatros",
        "Antonios",
        "Anubis",
        "Aphrodisios",
        "Apollinaris",
        "Apollodoros",
        "Apollon",
        "Apollonios",
        "Apostolis",
        "Apostolos",
        "Archelaos",
        "Archimedes",
        "Archippos",
        "Ares",
        "Argos",
        "Argyris",
        "Argyros",
        "Aristaios",
        "Aristarchos",
        "Aristeides",
        "Aristokles",
        "Aristodemos",
        "Ariston",
        "Aristophanes",
        "Aristoteles",
        "Arkadios",
        "Arsenios",
        "Artaxerxes",
        "Artemidoros",
        "Artemisios",
        "Asclepius",
        "Asklepiades",
        "Asklepios",
        "Athamus",
        "Athanas",
        "Athanasios",
        "Atlas",
        "Atreus",
        "Azarios",
        "Bakchos",
        "Barnabas",
        "Bartholomaios",
        "Bion",
        "Cadmus",
        "Caiaphas",
        "Cambyses",
        "Capaneus",
        "Chaos",
        "Charalampos",
        "Chariton",
        "Charon",
        "Chrysanthos",
        "Chrysaor",
        "Chryses",
        "Daidalos",
        "Damianos",
        "Damokles",
        "Damon",
        "Dareios",
        "Deimos",
        "Demetrios",
        "Demokritos",
        "Demon",
        "Demosthenes",
        "Demostrate",
        "Deucalion",
        "Diabolos",
        "Dimitrios",
        "Dimosthenis",
        "Diodoros",
        "Diodotos",
        "Diogenes",
        "Diokles",
        "Diomedes",
        "Dionysios",
        "Dionysodoros",
        "Dionysos",
        "Dorieus",
        "Doros",
        "Dorotheos",
        "Dorus",
        "Drakon",
        "Efstathios",
        "Eirenaios",
        "Eleftherios",
        "Eleutherios",
        "Elias",
        "Elihud",
        "Eliud",
        "Elpidios",
        "Emmanouil",
        "Epaphroditos",
        "Epiktetos",
        "Erasmos",
        "Erebos",
        "Eros",
        "Errikos",
        "Esaias",
        "Esdras",
        "Euandros",
        "Euaristos",
        "Euclid",
        "Eugenios",
        "Eukleides",
        "Euphemios",
        "Euphranor",
        "Euripides",
        "Eusebios",
        "Eustachys",
        "Eustakhios",
        "Eustathios",
        "Euthymios",
        "Eutropios",
        "Eutychios",
        "Eutychos",
        "Evangelos",
        "Fotios",
        "Fotis",
        "Gennadios",
        "Georgios",
        "Gerasimos",
        "Gregorios",
        "Haemon",
        "Haides",
        "Haimon",
        "Hektor",
        "Heli",
        "Heliodoros",
        "Helios",
        "Helladios",
        "Hellen",
        "Hellenas",
        "Hephaistos",
        "Heracles",
        "Heraclitus",
        "Herakleides",
        "Herakleitos",
        "Herakles",
        "Hermes",
        "Hermogenes",
        "Hermokrates",
        "Hermolaos",
        "Herodes",
        "Herodotos",
        "Hesiod",
        "Hesiodos",
        "Hesperos",
        "Hieronymos",
        "Hilarion",
        "Hippokrates",
        "Hippolytos",
        "Homer",
        "Homeros",
        "Horus",
        "Hyakinthos",
        "Hyginos",
        "Hypatios",
        "Hypatos",
        "Iairos",
        "Iakchos",
        "Iason",
        "Iduma",
        "Iesos",
        "Iesous",
        "Ihsoys",
        "Ikaros",
        "Ioannes",
        "Ioannis",
        "Isidoros",
        "Isokrates",
        "Jonas",
        "Josias",
        "Judas",
        "Jude",
        "Kadmos",
        "Kallias",
        "Kallikrates",
        "Kambyses",
        "Kapaneus",
        "Karpos",
        "Kastor",
        "Kephalos",
        "Kepheus",
        "Kerberos",
        "Khristophoros",
        "Khristos",
        "Khthonios",
        "Kleisthenes",
        "Kleitos",
        "Konstantinos",
        "Kosmas",
        "Kosmos",
        "Kreios",
        "Kreon",
        "Kronos",
        "Kyprianos",
        "Kyriakos",
        "Kyros",
        "Lavrentios",
        "Lazarus",
        "Leandros",
        "Lefteris",
        "Leonidas",
        "Linos",
        "Lykourgos",
        "Lysandros",
        "Lysimachos",
        "Macedon",
        "Makarios",
        "Makednos",
        "Makedon",
        "Manasses",
        "Mathias",
        "Matthaios",
        "Matthias",
        "Matthaios",
        "Menelaos",
        "Mentor",
        "Methodios",
        "Metrophanes",
        "Midas",
        "Miltiades",
        "Mnason",
        "Morpheus",
        "Myron",
        "Narkissos",
        "Neoptolemos",
        "Nereus",
        "Nestor",
        "Nicolaos",
        "Nikandros",
        "Nikephoros",
        "Nikias",
        "Nikodemos",
        "Nikolaos",
        "Nikomachos",
        "Nikomedes",
        "Nikon",
        "Nikostratos",
        "Nomiki",
        "Odysseus",
        "Oedipus",
        "Oidipous",
        "Oinone",
        "Okeanos",
        "Olympiodoros",
        "Olympos",
        "Olysseus",
        "Onesimos",
        "Onesiphoros",
        "Ophelos",
        "Orestes",
        "Origen",
        "Origenes",
        "Orion",
        "Orpheus",
        "Osiris",
        "Oulixes",
        "Oulixeus",
        "Ouranos",
        "Paeon",
        "Paian",
        "Paion",
        "Palaemon",
        "Pallas",
        "Pamphilos",
        "Pan",
        "Panagiotakis",
        "Panagiotis",
        "Panayiotis",
        "Pankratios",
        "Panos",
        "Pantaleon",
        "Pantheras",
        "Paramonimos",
        "Paramonos",
        "Paris",
        "Patroklos",
        "Pavlos",
        "Pegasos",
        "Pelagios",
        "Perikles",
        "Perseus",
        "Phaidros",
        "Phanes",
        "Philander",
        "Philemon",
        "Philippos",
        "Philokrates",
        "Philomenes",
        "Philon",
        "Philotheos",
        "Phobos",
        "Phoibos",
        "Phokas",
        "Photios",
        "Phrixos",
        "Platon",
        "Ploutarchos",
        "Plouton",
        "Podarge",
        "Polydeuces",
        "Polydeukes",
        "Polykarpos",
        "Porphyrios",
        "Poseidon",
        "Praxis",
        "Praxiteles",
        "Priamos",
        "Prochoros",
        "Prokopios",
        "Prometheus",
        "Proteus",
        "Ptolemy",
        "Pyrros",
        "Pythagoras",
        "Pythios",
        "Seleukos",
        "Serafeim",
        "Seth",
        "Sethos",
        "Silouanus",
        "Simon",
        "Simonides",
        "Sokrates",
        "Solon",
        "Sophokles",
        "Sophos",
        "Sophronios",
        "Sosigenes",
        "Sotirios",
        "Sotiris",
        "Spiridion",
        "Spiro",
        "Spiros",
        "Spyridon",
        "Spyro",
        "Spyros",
        "Stamatios",
        "Stamatis",
        "Stathis",
        "Stavros",
        "Stefanos",
        "Stelios",
        "Stephanos",
        "Straton",
        "Stylianos",
        "Takis",
        "Tarasios",
        "Telamon",
        "Telamonianajax",
        "Telesphoros",
        "Teris",
        "Thaddeus",
        "Thales",
        "Than",
        "Thanatos",
        "Thanos",
        "Themistokles",
        "Theodoros",
        "Theodosios",
        "Theodotos",
        "Theodoulos",
        "Theokritos",
        "Theophanes",
        "Theophilos",
        "Theophylaktos",
        "Therapon",
        "Theristis",
        "Theron",
        "Theseus",
        "Thoth",
        "Thoukydides",
        "Timaios",
        "Timotheos",
        "Titos",
        "Tobias",
        "Triton",
        "Tryphon",
        "Tychon",
        "Urias",
        "Usiris",
        "Vasilios",
        "Vasilis",
        "Vlasis",
        "Vlassis",
        "Xanthippos",
        "Xanthos",
        "Xenocrates",
        "Xenon",
        "Xenophon",
        "Xerxes",
        "Yanni",
        "Yannis",
        "Yianni",
        "Yiannis",
        "Yiorgos",
        "Yorgos",
        "Zacchaeus",
        "Zacharias",
        "Zebedee",
        "Zenobios",
        "Zenon",
        "Zephyr",
        "Zephyros",
        "Zeus",
        "Zopyros",
        "Zoroaster",
        "Zosimos",
        "Zotikos"
    ],
    "locations": [
        "Abdera",
        "Abila",
        "Abydos",
        "Acanthus",
        "Acharnae",
        "Actium",
        "Adramyttium",
        "Aegae",
        "Aegina",
        "Aegium",
        "Aenus",
        "Agrinion",
        "Aigosthena",
        "Akragas",
        "Akrai",
        "Akrillai",
        "Akroinon",
        "Akrotiri",
        "Alalia",
        "Alexandreia",
        "Alexandretta",
        "Alexandria",
        "Alinda",
        "Amarynthos",
        "Amaseia",
        "Ambracia",
        "Amida",
        "Amisos",
        "Amnisos",
        "Amphicaea",
        "Amphigeneia",
        "Amphipolis",
        "Amphissa",
        "Ankon",
        "Antigona",
        "Antipatrea",
        "Antioch",
        "Antioch",
        "Antiochia",
        "Andros",
        "Apamea",
        "Aphidnae",
        "Apollonia",
        "Argos",
        "Arsuf",
        "Artanes",
        "Artemita",
        "Argyroupoli",
        "Asine",
        "Asklepios",
        "Aspendos",
        "Assus",
        "Astacus",
        "Athenai",
        "Athmonia",
        "Aytos",
        "Ancient",
        "Baris",
        "Bhrytos",
        "Borysthenes",
        "Berge",
        "Boura",
        "Bouthroton",
        "Brauron",
        "Byblos",
        "Byllis",
        "Byzantium",
        "Bythinion",
        "Callipolis",
        "Cebrene",
        "Chalcedon",
        "Calydon",
        "Carystus",
        "Chamaizi",
        "Chalcis",
        "Chersonesos",
        "Chios",
        "Chytri",
        "Clazomenae",
        "Cleonae",
        "Cnidus",
        "Colosse",
        "Corcyra",
        "Croton",
        "Cyme",
        "Cyrene",
        "Cythera",
        "Decelea",
        "Delos",
        "Delphi",
        "Demetrias",
        "Dicaearchia",
        "Dimale",
        "Didyma",
        "Dion",
        "Dioscurias",
        "Dodona",
        "Dorylaion",
        "Dyme",
        "Edessa",
        "Elateia",
        "Eleusis",
        "Eleutherna",
        "Emporion",
        "Ephesus",
        "Ephyra",
        "Epidamnos",
        "Epidauros",
        "Eresos",
        "Eretria",
        "Erythrae",
        "Eubea",
        "Gangra",
        "Gaza",
        "Gela",
        "Golgi",
        "Gonnos",
        "Gorgippia",
        "Gournia",
        "Gortyn",
        "Gythium",
        "Hagios",
        "Hagia",
        "Halicarnassus",
        "Halieis",
        "Helike",
        "Heliopolis",
        "Hellespontos",
        "Helorus",
        "Hemeroskopeion",
        "Heraclea",
        "Hermione",
        "Hermonassa",
        "Hierapetra",
        "Hierapolis",
        "Himera",
        "Histria",
        "Hubla",
        "Hyele",
        "Ialysos",
        "Iasus",
        "Idalium",
        "Imbros",
        "Iolcus",
        "Itanos",
        "Ithaca",
        "Juktas",
        "Kallipolis",
        "Kamares",
        "Kameiros",
        "Kannia",
        "Kamarina",
        "Kasmenai",
        "Katane",
        "Kerkinitida",
        "Kepoi",
        "Kimmerikon",
        "Kios",
        "Klazomenai",
        "Knidos",
        "Knossos",
        "Korinthos",
        "Kos",
        "Kourion",
        "Kume",
        "Kydonia",
        "Kynos",
        "Kyrenia",
        "Lamia",
        "Lampsacus",
        "Laodicea",
        "Lapithos",
        "Larissa",
        "Lato",
        "Laus",
        "Lebena",
        "Lefkada",
        "Lekhaion",
        "Leibethra",
        "Leontinoi",
        "Lepreum",
        "Lessa",
        "Lilaea",
        "Lindus",
        "Lissus",
        "Epizephyrian",
        "Madytos",
        "Magnesia",
        "Mallia",
        "Mantineia",
        "Marathon",
        "Marmara",
        "Maroneia",
        "Masis",
        "Massalia",
        "Megalopolis",
        "Megara",
        "Mesembria",
        "Messene",
        "Metapontum",
        "Methana",
        "Methone",
        "Methumna",
        "Miletos",
        "Misenum",
        "Mochlos",
        "Monastiraki",
        "Morgantina",
        "Mulai",
        "Mukenai",
        "Mylasa",
        "Myndus",
        "Myonia",
        "Myra",
        "Myrmekion",
        "Mutilene",
        "Myos",
        "Nauplios",
        "Naucratis",
        "Naupactus",
        "Naxos",
        "Neapoli",
        "Neapolis",
        "Nemea",
        "Nicaea",
        "Nicopolis",
        "Nirou",
        "Nymphaion",
        "Nysa",
        "Oenoe",
        "Oenus",
        "Odessos",
        "Olbia",
        "Olous",
        "Olympia",
        "Olynthus",
        "Opus",
        "Orchomenus",
        "Oricos",
        "Orestias",
        "Oreus",
        "Oropus",
        "Onchesmos",
        "Pactye",
        "Pagasae",
        "Palaikastro",
        "Pandosia",
        "Panticapaeum",
        "Paphos",
        "Parium",
        "Paros",
        "Parthenope",
        "Patrae",
        "Pavlopetri",
        "Pegai",
        "Pelion",
        "Peiraies",
        "Pella",
        "Percote",
        "Pergamum",
        "Petsofa",
        "Phaistos",
        "Phaleron",
        "Phanagoria",
        "Pharae",
        "Pharnacia",
        "Pharos",
        "Phaselis",
        "Philippi",
        "Pithekussa",
        "Philippopolis",
        "Platanos",
        "Phlius",
        "Pherae",
        "Phocaea",
        "Pinara",
        "Pisa",
        "Pitane",
        "Pitiunt",
        "Pixous",
        "Plataea",
        "Poseidonia",
        "Potidaea",
        "Priapus",
        "Priene",
        "Prousa",
        "Pseira",
        "Psychro",
        "Pteleum",
        "Pydna",
        "Pylos",
        "Pyrgos",
        "Rhamnus",
        "Rhegion",
        "Rhithymna",
        "Rhodes",
        "Rhypes",
        "Rizinia",
        "Salamis",
        "Same",
        "Samos",
        "Scyllaeum",
        "Selinus",
        "Seleucia",
        "Semasus",
        "Sestos",
        "Scidrus",
        "Sicyon",
        "Side",
        "Sidon",
        "Siteia",
        "Sinope",
        "Siris",
        "Sklavokampos",
        "Smyrna",
        "Soli",
        "Sozopolis",
        "Sparta",
        "Stagirus",
        "Stratos",
        "Stymphalos",
        "Sybaris",
        "Surakousai",
        "Taras",
        "Tanagra",
        "Tanais",
        "Tauromenion",
        "Tegea",
        "Temnos",
        "Tenedos",
        "Tenea",
        "Teos",
        "Thapsos",
        "Thassos",
        "Thebai",
        "Theodosia",
        "Therma",
        "Thespiae",
        "Thronion",
        "Thoricus",
        "Thurii",
        "Thyreum",
        "Thyria",
        "Tiruns",
        "Tithoraea",
        "Tomis",
        "Tragurion",
        "Trapeze",
        "Trapezus",
        "Tripolis",
        "Troizen",
        "Troliton",
        "Troy",
        "Tylissos",
        "Tyras",
        "Tyros",
        "Tyritake",
        "Vasiliki",
        "Vathypetros",
        "Zakynthos",
        "Zakros",
        "Zankle",
        "Achilleus"
    ]
}